{"page": 1, "results": [{"id": 560016, "original_title": "Monkey Man", "vote_average": 7.354}, {"id": 1041613, "original_title": "Immaculate","vote_average": 6.15}], "total_pages": 1000, "total_results": 20000}